(['d:\\chrissidtmeier\\projects\\c-vs-python\\src\\python.py'],
 ['d:\\chrissidtmeier\\projects\\c-vs-python\\src',
  'd:\\chrissidtmeier\\projects\\c-vs-python'],
 ['codecs'],
 [],
 [],
 [],
 False,
 False,
 '3.7.3 (v3.7.3:ef4ec6ed12, Mar 25 2019, 22:22:05) [MSC v.1916 64 bit (AMD64)]',
 [('python',
   'd:\\chrissidtmeier\\projects\\c-vs-python\\src\\python.py',
   'PYSOURCE')],
 [('ntpath', 'C:\\Python373\\lib\\ntpath.py', 'PYMODULE'),
  ('_strptime', 'C:\\Python373\\lib\\_strptime.py', 'PYMODULE'),
  ('datetime', 'C:\\Python373\\lib\\datetime.py', 'PYMODULE'),
  ('typing', 'C:\\Python373\\lib\\typing.py', 'PYMODULE'),
  ('stringprep', 'C:\\Python373\\lib\\stringprep.py', 'PYMODULE'),
  ('_py_abc', 'C:\\Python373\\lib\\_py_abc.py', 'PYMODULE'),
  ('fnmatch', 'C:\\Python373\\lib\\fnmatch.py', 'PYMODULE'),
  ('struct', 'C:\\Python373\\lib\\struct.py', 'PYMODULE'),
  ('_compat_pickle', 'C:\\Python373\\lib\\_compat_pickle.py', 'PYMODULE'),
  ('__future__', 'C:\\Python373\\lib\\__future__.py', 'PYMODULE'),
  ('difflib', 'C:\\Python373\\lib\\difflib.py', 'PYMODULE'),
  ('ast', 'C:\\Python373\\lib\\ast.py', 'PYMODULE'),
  ('inspect', 'C:\\Python373\\lib\\inspect.py', 'PYMODULE'),
  ('cmd', 'C:\\Python373\\lib\\cmd.py', 'PYMODULE'),
  ('bdb', 'C:\\Python373\\lib\\bdb.py', 'PYMODULE'),
  ('opcode', 'C:\\Python373\\lib\\opcode.py', 'PYMODULE'),
  ('dis', 'C:\\Python373\\lib\\dis.py', 'PYMODULE'),
  ('codeop', 'C:\\Python373\\lib\\codeop.py', 'PYMODULE'),
  ('code', 'C:\\Python373\\lib\\code.py', 'PYMODULE'),
  ('glob', 'C:\\Python373\\lib\\glob.py', 'PYMODULE'),
  ('shlex', 'C:\\Python373\\lib\\shlex.py', 'PYMODULE'),
  ('runpy', 'C:\\Python373\\lib\\runpy.py', 'PYMODULE'),
  ('importlib._bootstrap',
   'C:\\Python373\\lib\\importlib\\_bootstrap.py',
   'PYMODULE'),
  ('importlib._bootstrap_external',
   'C:\\Python373\\lib\\importlib\\_bootstrap_external.py',
   'PYMODULE'),
  ('importlib.machinery',
   'C:\\Python373\\lib\\importlib\\machinery.py',
   'PYMODULE'),
  ('importlib.util', 'C:\\Python373\\lib\\importlib\\util.py', 'PYMODULE'),
  ('importlib.abc', 'C:\\Python373\\lib\\importlib\\abc.py', 'PYMODULE'),
  ('importlib', 'C:\\Python373\\lib\\importlib\\__init__.py', 'PYMODULE'),
  ('pkgutil', 'C:\\Python373\\lib\\pkgutil.py', 'PYMODULE'),
  ('xml', 'C:\\Python373\\lib\\xml\\__init__.py', 'PYMODULE'),
  ('xml.sax.expatreader',
   'C:\\Python373\\lib\\xml\\sax\\expatreader.py',
   'PYMODULE'),
  ('xml.sax.saxutils', 'C:\\Python373\\lib\\xml\\sax\\saxutils.py', 'PYMODULE'),
  ('urllib.request', 'C:\\Python373\\lib\\urllib\\request.py', 'PYMODULE'),
  ('getpass', 'C:\\Python373\\lib\\getpass.py', 'PYMODULE'),
  ('nturl2path', 'C:\\Python373\\lib\\nturl2path.py', 'PYMODULE'),
  ('ftplib', 'C:\\Python373\\lib\\ftplib.py', 'PYMODULE'),
  ('netrc', 'C:\\Python373\\lib\\netrc.py', 'PYMODULE'),
  ('http.cookiejar', 'C:\\Python373\\lib\\http\\cookiejar.py', 'PYMODULE'),
  ('urllib.response', 'C:\\Python373\\lib\\urllib\\response.py', 'PYMODULE'),
  ('urllib.error', 'C:\\Python373\\lib\\urllib\\error.py', 'PYMODULE'),
  ('xml.sax', 'C:\\Python373\\lib\\xml\\sax\\__init__.py', 'PYMODULE'),
  ('xml.sax.handler', 'C:\\Python373\\lib\\xml\\sax\\handler.py', 'PYMODULE'),
  ('xml.sax._exceptions',
   'C:\\Python373\\lib\\xml\\sax\\_exceptions.py',
   'PYMODULE'),
  ('xml.sax.xmlreader',
   'C:\\Python373\\lib\\xml\\sax\\xmlreader.py',
   'PYMODULE'),
  ('xml.parsers', 'C:\\Python373\\lib\\xml\\parsers\\__init__.py', 'PYMODULE'),
  ('xml.parsers.expat',
   'C:\\Python373\\lib\\xml\\parsers\\expat.py',
   'PYMODULE'),
  ('plistlib', 'C:\\Python373\\lib\\plistlib.py', 'PYMODULE'),
  ('platform', 'C:\\Python373\\lib\\platform.py', 'PYMODULE'),
  ('token', 'C:\\Python373\\lib\\token.py', 'PYMODULE'),
  ('tokenize', 'C:\\Python373\\lib\\tokenize.py', 'PYMODULE'),
  ('urllib.parse', 'C:\\Python373\\lib\\urllib\\parse.py', 'PYMODULE'),
  ('tempfile', 'C:\\Python373\\lib\\tempfile.py', 'PYMODULE'),
  ('tty', 'C:\\Python373\\lib\\tty.py', 'PYMODULE'),
  ('pydoc_data', 'C:\\Python373\\lib\\pydoc_data\\__init__.py', 'PYMODULE'),
  ('pydoc_data.topics',
   'C:\\Python373\\lib\\pydoc_data\\topics.py',
   'PYMODULE'),
  ('html.entities', 'C:\\Python373\\lib\\html\\entities.py', 'PYMODULE'),
  ('html', 'C:\\Python373\\lib\\html\\__init__.py', 'PYMODULE'),
  ('ssl', 'C:\\Python373\\lib\\ssl.py', 'PYMODULE'),
  ('http.client', 'C:\\Python373\\lib\\http\\client.py', 'PYMODULE'),
  ('mimetypes', 'C:\\Python373\\lib\\mimetypes.py', 'PYMODULE'),
  ('socketserver', 'C:\\Python373\\lib\\socketserver.py', 'PYMODULE'),
  ('http', 'C:\\Python373\\lib\\http\\__init__.py', 'PYMODULE'),
  ('http.server', 'C:\\Python373\\lib\\http\\server.py', 'PYMODULE'),
  ('optparse', 'C:\\Python373\\lib\\optparse.py', 'PYMODULE'),
  ('uu', 'C:\\Python373\\lib\\uu.py', 'PYMODULE'),
  ('quopri', 'C:\\Python373\\lib\\quopri.py', 'PYMODULE'),
  ('email.feedparser', 'C:\\Python373\\lib\\email\\feedparser.py', 'PYMODULE'),
  ('email.parser', 'C:\\Python373\\lib\\email\\parser.py', 'PYMODULE'),
  ('email', 'C:\\Python373\\lib\\email\\__init__.py', 'PYMODULE'),
  ('calendar', 'C:\\Python373\\lib\\calendar.py', 'PYMODULE'),
  ('email._parseaddr', 'C:\\Python373\\lib\\email\\_parseaddr.py', 'PYMODULE'),
  ('email.utils', 'C:\\Python373\\lib\\email\\utils.py', 'PYMODULE'),
  ('email.errors', 'C:\\Python373\\lib\\email\\errors.py', 'PYMODULE'),
  ('email.header', 'C:\\Python373\\lib\\email\\header.py', 'PYMODULE'),
  ('email._policybase',
   'C:\\Python373\\lib\\email\\_policybase.py',
   'PYMODULE'),
  ('email.base64mime', 'C:\\Python373\\lib\\email\\base64mime.py', 'PYMODULE'),
  ('email.encoders', 'C:\\Python373\\lib\\email\\encoders.py', 'PYMODULE'),
  ('email.charset', 'C:\\Python373\\lib\\email\\charset.py', 'PYMODULE'),
  ('base64', 'C:\\Python373\\lib\\base64.py', 'PYMODULE'),
  ('email._encoded_words',
   'C:\\Python373\\lib\\email\\_encoded_words.py',
   'PYMODULE'),
  ('hashlib', 'C:\\Python373\\lib\\hashlib.py', 'PYMODULE'),
  ('bisect', 'C:\\Python373\\lib\\bisect.py', 'PYMODULE'),
  ('random', 'C:\\Python373\\lib\\random.py', 'PYMODULE'),
  ('email.generator', 'C:\\Python373\\lib\\email\\generator.py', 'PYMODULE'),
  ('email.iterators', 'C:\\Python373\\lib\\email\\iterators.py', 'PYMODULE'),
  ('urllib', 'C:\\Python373\\lib\\urllib\\__init__.py', 'PYMODULE'),
  ('email._header_value_parser',
   'C:\\Python373\\lib\\email\\_header_value_parser.py',
   'PYMODULE'),
  ('email.headerregistry',
   'C:\\Python373\\lib\\email\\headerregistry.py',
   'PYMODULE'),
  ('email.quoprimime', 'C:\\Python373\\lib\\email\\quoprimime.py', 'PYMODULE'),
  ('email.contentmanager',
   'C:\\Python373\\lib\\email\\contentmanager.py',
   'PYMODULE'),
  ('email.policy', 'C:\\Python373\\lib\\email\\policy.py', 'PYMODULE'),
  ('email.message', 'C:\\Python373\\lib\\email\\message.py', 'PYMODULE'),
  ('bz2', 'C:\\Python373\\lib\\bz2.py', 'PYMODULE'),
  ('lzma', 'C:\\Python373\\lib\\lzma.py', 'PYMODULE'),
  ('_compression', 'C:\\Python373\\lib\\_compression.py', 'PYMODULE'),
  ('gzip', 'C:\\Python373\\lib\\gzip.py', 'PYMODULE'),
  ('tarfile', 'C:\\Python373\\lib\\tarfile.py', 'PYMODULE'),
  ('py_compile', 'C:\\Python373\\lib\\py_compile.py', 'PYMODULE'),
  ('zipfile', 'C:\\Python373\\lib\\zipfile.py', 'PYMODULE'),
  ('shutil', 'C:\\Python373\\lib\\shutil.py', 'PYMODULE'),
  ('socket', 'C:\\Python373\\lib\\socket.py', 'PYMODULE'),
  ('webbrowser', 'C:\\Python373\\lib\\webbrowser.py', 'PYMODULE'),
  ('pydoc', 'C:\\Python373\\lib\\pydoc.py', 'PYMODULE'),
  ('getopt', 'C:\\Python373\\lib\\getopt.py', 'PYMODULE'),
  ('pdb', 'C:\\Python373\\lib\\pdb.py', 'PYMODULE'),
  ('unittest.util', 'C:\\Python373\\lib\\unittest\\util.py', 'PYMODULE'),
  ('unittest.result', 'C:\\Python373\\lib\\unittest\\result.py', 'PYMODULE'),
  ('string', 'C:\\Python373\\lib\\string.py', 'PYMODULE'),
  ('logging', 'C:\\Python373\\lib\\logging\\__init__.py', 'PYMODULE'),
  ('unittest.case', 'C:\\Python373\\lib\\unittest\\case.py', 'PYMODULE'),
  ('unittest.suite', 'C:\\Python373\\lib\\unittest\\suite.py', 'PYMODULE'),
  ('unittest.loader', 'C:\\Python373\\lib\\unittest\\loader.py', 'PYMODULE'),
  ('unittest.runner', 'C:\\Python373\\lib\\unittest\\runner.py', 'PYMODULE'),
  ('unittest.main', 'C:\\Python373\\lib\\unittest\\main.py', 'PYMODULE'),
  ('unittest.signals', 'C:\\Python373\\lib\\unittest\\signals.py', 'PYMODULE'),
  ('unittest', 'C:\\Python373\\lib\\unittest\\__init__.py', 'PYMODULE'),
  ('doctest', 'C:\\Python373\\lib\\doctest.py', 'PYMODULE'),
  ('stat', 'C:\\Python373\\lib\\stat.py', 'PYMODULE'),
  ('genericpath', 'C:\\Python373\\lib\\genericpath.py', 'PYMODULE'),
  ('posixpath', 'C:\\Python373\\lib\\posixpath.py', 'PYMODULE'),
  ('signal', 'C:\\Python373\\lib\\signal.py', 'PYMODULE'),
  ('contextlib', 'C:\\Python373\\lib\\contextlib.py', 'PYMODULE'),
  ('_threading_local', 'C:\\Python373\\lib\\_threading_local.py', 'PYMODULE'),
  ('threading', 'C:\\Python373\\lib\\threading.py', 'PYMODULE'),
  ('selectors', 'C:\\Python373\\lib\\selectors.py', 'PYMODULE'),
  ('subprocess', 'C:\\Python373\\lib\\subprocess.py', 'PYMODULE'),
  ('os', 'C:\\Python373\\lib\\os.py', 'PYMODULE'),
  ('gettext', 'C:\\Python373\\lib\\gettext.py', 'PYMODULE'),
  ('copy', 'C:\\Python373\\lib\\copy.py', 'PYMODULE'),
  ('textwrap', 'C:\\Python373\\lib\\textwrap.py', 'PYMODULE'),
  ('argparse', 'C:\\Python373\\lib\\argparse.py', 'PYMODULE'),
  ('pprint', 'C:\\Python373\\lib\\pprint.py', 'PYMODULE'),
  ('pickle', 'C:\\Python373\\lib\\pickle.py', 'PYMODULE'),
  ('tracemalloc', 'C:\\Python373\\lib\\tracemalloc.py', 'PYMODULE'),
  ('timeit', 'C:\\Python373\\lib\\timeit.py', 'PYMODULE')],
 [('_ssl', 'C:\\Python373\\DLLs\\_ssl.pyd', 'EXTENSION'),
  ('pyexpat', 'C:\\Python373\\DLLs\\pyexpat.pyd', 'EXTENSION'),
  ('unicodedata', 'C:\\Python373\\DLLs\\unicodedata.pyd', 'EXTENSION'),
  ('_hashlib', 'C:\\Python373\\DLLs\\_hashlib.pyd', 'EXTENSION'),
  ('_bz2', 'C:\\Python373\\DLLs\\_bz2.pyd', 'EXTENSION'),
  ('_lzma', 'C:\\Python373\\DLLs\\_lzma.pyd', 'EXTENSION'),
  ('_socket', 'C:\\Python373\\DLLs\\_socket.pyd', 'EXTENSION'),
  ('select', 'C:\\Python373\\DLLs\\select.pyd', 'EXTENSION'),
  ('libcrypto-1_1-x64.dll',
   'C:\\Python373\\DLLs\\libcrypto-1_1-x64.dll',
   'BINARY'),
  ('python37.dll', 'C:\\Python373\\python37.dll', 'BINARY'),
  ('libssl-1_1-x64.dll', 'C:\\Python373\\DLLs\\libssl-1_1-x64.dll', 'BINARY'),
  ('VCRUNTIME140.dll', 'C:\\Python373\\vcruntime140.dll', 'BINARY')],
 [],
 [],
 [('base_library.zip', 'temp\\python\\base_library.zip', 'DATA')],
 [])
