('bin\\python.exe',
 True,
 False,
 False,
 None,
 None,
 False,
 False,
 '<?xml version="1.0" encoding="UTF-8" standalone="yes"?><assembly manifestVersion="1.0" xmlns="urn:schemas-microsoft-com:asm.v1"><assemblyIdentity name="python" processorArchitecture="amd64" type="win32" version="1.0.0.0"/><dependency><dependentAssembly><assemblyIdentity language="*" name="Microsoft.Windows.Common-Controls" processorArchitecture="*" publicKeyToken="6595b64144ccf1df" type="win32" version="6.0.0.0"/><compatibility xmlns="urn:schemas-microsoft-com:compatibility.v1"/></dependentAssembly></dependency><compatibility xmlns="urn:schemas-microsoft-com:compatibility.v1"><application><supportedOS Id="{e2011457-1546-43c5-a5fe-008deee3d3f0}"/><supportedOS Id="{35138b9a-5d96-4fbd-8e2d-a2440225f93a}"/><supportedOS Id="{4a2f28e3-53b9-4441-ba9c-d69d4a4a6e38}"/><supportedOS Id="{1f676c76-80e1-4239-95bb-83d0f6d0da78}"/><supportedOS Id="{8e0f7a12-bfb3-4fe8-b9a5-48fd50a15a9a}"/></application></compatibility></assembly>',
 True,
 'python.pkg',
 [('PYZ-00.pyz', 'temp\\python\\PYZ-00.pyz', 'PYZ'),
  ('struct', 'C:\\Python373\\lib\\struct.pyo', 'PYMODULE'),
  ('pyimod01_os_path',
   'd:\\chrissidtmeier\\projects\\c-vs-python\\venv\\lib\\site-packages\\PyInstaller\\loader\\pyimod01_os_path.pyc',
   'PYMODULE'),
  ('pyimod02_archive',
   'd:\\chrissidtmeier\\projects\\c-vs-python\\venv\\lib\\site-packages\\PyInstaller\\loader\\pyimod02_archive.pyc',
   'PYMODULE'),
  ('pyimod03_importers',
   'd:\\chrissidtmeier\\projects\\c-vs-python\\venv\\lib\\site-packages\\PyInstaller\\loader\\pyimod03_importers.pyc',
   'PYMODULE'),
  ('pyiboot01_bootstrap',
   'd:\\chrissidtmeier\\projects\\c-vs-python\\venv\\lib\\site-packages\\PyInstaller\\loader\\pyiboot01_bootstrap.py',
   'PYSOURCE'),
  ('python',
   'd:\\chrissidtmeier\\projects\\c-vs-python\\src\\python.py',
   'PYSOURCE'),
  ('_ssl', 'C:\\Python373\\DLLs\\_ssl.pyd', 'EXTENSION'),
  ('pyexpat', 'C:\\Python373\\DLLs\\pyexpat.pyd', 'EXTENSION'),
  ('unicodedata', 'C:\\Python373\\DLLs\\unicodedata.pyd', 'EXTENSION'),
  ('_hashlib', 'C:\\Python373\\DLLs\\_hashlib.pyd', 'EXTENSION'),
  ('_bz2', 'C:\\Python373\\DLLs\\_bz2.pyd', 'EXTENSION'),
  ('_lzma', 'C:\\Python373\\DLLs\\_lzma.pyd', 'EXTENSION'),
  ('_socket', 'C:\\Python373\\DLLs\\_socket.pyd', 'EXTENSION'),
  ('select', 'C:\\Python373\\DLLs\\select.pyd', 'EXTENSION'),
  ('libcrypto-1_1-x64.dll',
   'C:\\Python373\\DLLs\\libcrypto-1_1-x64.dll',
   'BINARY'),
  ('python37.dll', 'C:\\Python373\\python37.dll', 'BINARY'),
  ('libssl-1_1-x64.dll', 'C:\\Python373\\DLLs\\libssl-1_1-x64.dll', 'BINARY'),
  ('VCRUNTIME140.dll', 'C:\\Python373\\vcruntime140.dll', 'BINARY'),
  ('base_library.zip', 'temp\\python\\base_library.zip', 'DATA'),
  ('python.exe.manifest', 'temp\\python\\python.exe.manifest', 'BINARY'),
  ('pyi-windows-manifest-filename python.exe.manifest', '', 'OPTION')],
 [],
 False,
 False,
 1556738796,
 [('run.exe',
   'd:\\chrissidtmeier\\projects\\c-vs-python\\venv\\lib\\site-packages\\PyInstaller\\bootloader\\Windows-64bit\\run.exe',
   'EXECUTABLE')])
