('temp\\python\\PKG-00.pkg',
 {'BINARY': 1,
  'DATA': 1,
  'EXECUTABLE': 1,
  'EXTENSION': 1,
  'PYMODULE': 1,
  'PYSOURCE': 1,
  'PYZ': 0},
 [('PYZ-00.pyz', 'temp\\python\\PYZ-00.pyz', 'PYZ'),
  ('struct', 'C:\\Python373\\lib\\struct.pyo', 'PYMODULE'),
  ('pyimod01_os_path',
   'd:\\chrissidtmeier\\projects\\c-vs-python\\venv\\lib\\site-packages\\PyInstaller\\loader\\pyimod01_os_path.pyc',
   'PYMODULE'),
  ('pyimod02_archive',
   'd:\\chrissidtmeier\\projects\\c-vs-python\\venv\\lib\\site-packages\\PyInstaller\\loader\\pyimod02_archive.pyc',
   'PYMODULE'),
  ('pyimod03_importers',
   'd:\\chrissidtmeier\\projects\\c-vs-python\\venv\\lib\\site-packages\\PyInstaller\\loader\\pyimod03_importers.pyc',
   'PYMODULE'),
  ('pyiboot01_bootstrap',
   'd:\\chrissidtmeier\\projects\\c-vs-python\\venv\\lib\\site-packages\\PyInstaller\\loader\\pyiboot01_bootstrap.py',
   'PYSOURCE'),
  ('python',
   'd:\\chrissidtmeier\\projects\\c-vs-python\\src\\python.py',
   'PYSOURCE'),
  ('_ssl', 'C:\\Python373\\DLLs\\_ssl.pyd', 'EXTENSION'),
  ('pyexpat', 'C:\\Python373\\DLLs\\pyexpat.pyd', 'EXTENSION'),
  ('unicodedata', 'C:\\Python373\\DLLs\\unicodedata.pyd', 'EXTENSION'),
  ('_hashlib', 'C:\\Python373\\DLLs\\_hashlib.pyd', 'EXTENSION'),
  ('_bz2', 'C:\\Python373\\DLLs\\_bz2.pyd', 'EXTENSION'),
  ('_lzma', 'C:\\Python373\\DLLs\\_lzma.pyd', 'EXTENSION'),
  ('_socket', 'C:\\Python373\\DLLs\\_socket.pyd', 'EXTENSION'),
  ('select', 'C:\\Python373\\DLLs\\select.pyd', 'EXTENSION'),
  ('libcrypto-1_1-x64.dll',
   'C:\\Python373\\DLLs\\libcrypto-1_1-x64.dll',
   'BINARY'),
  ('python37.dll', 'C:\\Python373\\python37.dll', 'BINARY'),
  ('libssl-1_1-x64.dll', 'C:\\Python373\\DLLs\\libssl-1_1-x64.dll', 'BINARY'),
  ('VCRUNTIME140.dll', 'C:\\Python373\\vcruntime140.dll', 'BINARY'),
  ('base_library.zip', 'temp\\python\\base_library.zip', 'DATA'),
  ('python.exe.manifest', 'temp\\python\\python.exe.manifest', 'BINARY'),
  ('pyi-windows-manifest-filename python.exe.manifest', '', 'OPTION')],
 False,
 False,
 False)
